<svg width="59" height="58" viewBox="0 0 59 58" fill="none" xmlns="http://www.w3.org/2000/svg">
<path fill-rule="evenodd" clip-rule="evenodd" d="M29.1665 57.5747C45.2747 57.5747 58.333 44.8908 58.333 29.2444C58.333 13.598 45.2747 0.914062 29.1665 0.914062C13.0583 0.914062 0 13.598 0 29.2444C0 44.8908 13.0583 57.5747 29.1665 57.5747Z" fill="#D8D8D8"/>
</svg>
